{
  "type": "excalidraw",
  "version": 2,
  "source": "https://excalidraw.com",
  "elements": [
    {
      "id": "7DwHsS_xx1EwAGvD_bOEq",
      "type": "rectangle",
      "x": 546.5285034179688,
      "y": 389.17523193359375,
      "width": 156.0726318359375,
      "height": 124.50955200195312,
      "angle": 0,
      "strokeColor": "#5f3dc4",
      "backgroundColor": "transparent",
      "fillStyle": "hachure",
      "strokeWidth": 2,
      "strokeStyle": "solid",
      "roughness": 0,
      "opacity": 100,
      "groupIds": [],
      "strokeSharpness": "sharp",
      "seed": 1624108591,
      "version": 185,
      "versionNonce": 357059489,
      "isDeleted": false,
      "boundElementIds": null
    },
    {
      "id": "6DRgJ51w4phFwYi5_oCox",
      "type": "text",
      "x": 551.9468994140625,
      "y": 359.500244140625,
      "width": 128,
      "height": 25,
      "angle": 0,
      "strokeColor": "#5f3dc4",
      "backgroundColor": "transparent",
      "fillStyle": "hachure",
      "strokeWidth": 2,
      "strokeStyle": "solid",
      "roughness": 0,
      "opacity": 100,
      "groupIds": [],
      "strokeSharpness": "sharp",
      "seed": 100494959,
      "version": 193,
      "versionNonce": 2062318319,
      "isDeleted": false,
      "boundElementIds": [
        "eFctN1mEgVfVMEnw_nHph"
      ],
      "text": "Profile DApp",
      "fontSize": 20,
      "fontFamily": 1,
      "textAlign": "left",
      "verticalAlign": "top",
      "baseline": 18
    },
    {
      "id": "58qWfOObVySGJ6oeroW3i",
      "type": "ellipse",
      "x": 710.7333984375,
      "y": 399.6683349609375,
      "width": 11.95819091796875,
      "height": 10.153839111328125,
      "angle": 0,
      "strokeColor": "#5f3dc4",
      "backgroundColor": "#000000",
      "fillStyle": "solid",
      "strokeWidth": 2,
      "strokeStyle": "solid",
      "roughness": 0,
      "opacity": 100,
      "groupIds": [
        "WrTI-IkvaQJosIGRzjqI2"
      ],
      "strokeSharpness": "sharp",
      "seed": 220284897,
      "version": 336,
      "versionNonce": 658199407,
      "isDeleted": false,
      "boundElementIds": null
    },
    {
      "id": "6UXkhCvQgRsLZFRHaKiDn",
      "type": "ellipse",
      "x": 711.0209045410156,
      "y": 428.92308044433594,
      "width": 11.95819091796875,
      "height": 10.153839111328125,
      "angle": 0,
      "strokeColor": "#5f3dc4",
      "backgroundColor": "#000000",
      "fillStyle": "solid",
      "strokeWidth": 2,
      "strokeStyle": "solid",
      "roughness": 0,
      "opacity": 100,
      "groupIds": [
        "WrTI-IkvaQJosIGRzjqI2"
      ],
      "strokeSharpness": "sharp",
      "seed": 89419585,
      "version": 517,
      "versionNonce": 2070486785,
      "isDeleted": false,
      "boundElementIds": null
    },
    {
      "id": "SAk8rCmGPa8QpX0QaAqVz",
      "type": "ellipse",
      "x": 712.0209045410156,
      "y": 457.92308044433594,
      "width": 11.95819091796875,
      "height": 10.153839111328125,
      "angle": 0,
      "strokeColor": "#5f3dc4",
      "backgroundColor": "#000000",
      "fillStyle": "solid",
      "strokeWidth": 2,
      "strokeStyle": "solid",
      "roughness": 0,
      "opacity": 100,
      "groupIds": [
        "WrTI-IkvaQJosIGRzjqI2"
      ],
      "strokeSharpness": "sharp",
      "seed": 911519713,
      "version": 712,
      "versionNonce": 578620815,
      "isDeleted": false,
      "boundElementIds": null
    },
    {
      "id": "ItAU394rcZTQLpdjmSHql",
      "type": "ellipse",
      "x": 712.0209045410156,
      "y": 487.92308044433594,
      "width": 11.95819091796875,
      "height": 10.153839111328125,
      "angle": 0,
      "strokeColor": "#5f3dc4",
      "backgroundColor": "#000000",
      "fillStyle": "solid",
      "strokeWidth": 2,
      "strokeStyle": "solid",
      "roughness": 0,
      "opacity": 100,
      "groupIds": [
        "WrTI-IkvaQJosIGRzjqI2"
      ],
      "strokeSharpness": "sharp",
      "seed": 840277921,
      "version": 951,
      "versionNonce": 433034977,
      "isDeleted": false,
      "boundElementIds": null
    },
    {
      "id": "fQNHhxzg-x37PVQ-maS5g",
      "type": "text",
      "x": 739.5694580078125,
      "y": 391.2760925292969,
      "width": 77,
      "height": 25,
      "angle": 0,
      "strokeColor": "#5f3dc4",
      "backgroundColor": "transparent",
      "fillStyle": "hachure",
      "strokeWidth": 2,
      "strokeStyle": "solid",
      "roughness": 0,
      "opacity": 100,
      "groupIds": [
        "WrTI-IkvaQJosIGRzjqI2"
      ],
      "strokeSharpness": "sharp",
      "seed": 1729315969,
      "version": 246,
      "versionNonce": 1573028783,
      "isDeleted": false,
      "boundElementIds": null,
      "text": "@Handle",
      "fontSize": 20,
      "fontFamily": 1,
      "textAlign": "left",
      "verticalAlign": "top",
      "baseline": 18
    },
    {
      "id": "t2xviB_P4cSI3OHcD7zUW",
      "type": "text",
      "x": 742.5,
      "y": 422.5,
      "width": 186,
      "height": 25,
      "angle": 0,
      "strokeColor": "#5f3dc4",
      "backgroundColor": "transparent",
      "fillStyle": "hachure",
      "strokeWidth": 2,
      "strokeStyle": "solid",
      "roughness": 0,
      "opacity": 100,
      "groupIds": [
        "WrTI-IkvaQJosIGRzjqI2"
      ],
      "strokeSharpness": "sharp",
      "seed": 932870497,
      "version": 480,
      "versionNonce": 1103795521,
      "isDeleted": false,
      "boundElementIds": null,
      "text": "Private/Public Key",
      "fontSize": 20,
      "fontFamily": 1,
      "textAlign": "left",
      "verticalAlign": "top",
      "baseline": 18
    },
    {
      "id": "CEkfBJBawu9mijMYAoJC3",
      "type": "text",
      "x": 739.8563232421875,
      "y": 452.2584228515625,
      "width": 127,
      "height": 25,
      "angle": 0,
      "strokeColor": "#5f3dc4",
      "backgroundColor": "#000000",
      "fillStyle": "solid",
      "strokeWidth": 2,
      "strokeStyle": "solid",
      "roughness": 0,
      "opacity": 100,
      "groupIds": [
        "WrTI-IkvaQJosIGRzjqI2"
      ],
      "strokeSharpness": "sharp",
      "seed": 2122717007,
      "version": 228,
      "versionNonce": 422852047,
      "isDeleted": false,
      "boundElementIds": null,
      "text": "Posts/Data",
      "fontSize": 20,
      "fontFamily": 1,
      "textAlign": "left",
      "verticalAlign": "top",
      "baseline": 18
    },
    {
      "id": "v-vku68DK0h12Z6YVfIpB",
      "type": "text",
      "x": 740.6937866210938,
      "y": 484.94134521484375,
      "width": 111,
      "height": 25,
      "angle": 0,
      "strokeColor": "#5f3dc4",
      "backgroundColor": "#000000",
      "fillStyle": "solid",
      "strokeWidth": 2,
      "strokeStyle": "solid",
      "roughness": 0,
      "opacity": 100,
      "groupIds": [
        "WrTI-IkvaQJosIGRzjqI2"
      ],
      "strokeSharpness": "sharp",
      "seed": 1620733153,
      "version": 272,
      "versionNonce": 1806570145,
      "isDeleted": false,
      "boundElementIds": null,
      "text": "Wallet, etc.",
      "fontSize": 20,
      "fontFamily": 1,
      "textAlign": "left",
      "verticalAlign": "top",
      "baseline": 18
    },
    {
      "id": "N-qeIZ1EsXkLgY69JKHlY",
      "type": "line",
      "x": 576.4285888671875,
      "y": 410.75140380859375,
      "width": 87.1031494140625,
      "height": 1.0921630859375,
      "angle": 0,
      "strokeColor": "#5f3dc4",
      "backgroundColor": "#000000",
      "fillStyle": "solid",
      "strokeWidth": 2,
      "strokeStyle": "solid",
      "roughness": 0,
      "opacity": 100,
      "groupIds": [],
      "strokeSharpness": "round",
      "seed": 1964077231,
      "version": 634,
      "versionNonce": 2070765281,
      "isDeleted": false,
      "boundElementIds": null,
      "points": [
        [
          0,
          0
        ],
        [
          87.1031494140625,
          1.0921630859375
        ]
      ],
      "lastCommittedPoint": null,
      "startBinding": null,
      "endBinding": null,
      "startArrowhead": null,
      "endArrowhead": null
    },
    {
      "id": "7nnzjCqCrzA6Yrt7FoxMy",
      "type": "line",
      "x": 577.4484252929688,
      "y": 437.45391845703125,
      "width": 87.1031494140625,
      "height": 1.0921630859375,
      "angle": 0,
      "strokeColor": "#5f3dc4",
      "backgroundColor": "#000000",
      "fillStyle": "solid",
      "strokeWidth": 2,
      "strokeStyle": "solid",
      "roughness": 0,
      "opacity": 100,
      "groupIds": [],
      "strokeSharpness": "round",
      "seed": 109496641,
      "version": 779,
      "versionNonce": 1136999343,
      "isDeleted": false,
      "boundElementIds": null,
      "points": [
        [
          0,
          0
        ],
        [
          87.1031494140625,
          1.0921630859375
        ]
      ],
      "lastCommittedPoint": null,
      "startBinding": null,
      "endBinding": null,
      "startArrowhead": null,
      "endArrowhead": null
    },
    {
      "id": "5PzWfcJB5eBEyrUehMDsR",
      "type": "line",
      "x": 576.9385070800781,
      "y": 461.1026611328125,
      "width": 87.1031494140625,
      "height": 1.0921630859375,
      "angle": 0,
      "strokeColor": "#5f3dc4",
      "backgroundColor": "#000000",
      "fillStyle": "solid",
      "strokeWidth": 2,
      "strokeStyle": "solid",
      "roughness": 0,
      "opacity": 100,
      "groupIds": [],
      "strokeSharpness": "round",
      "seed": 263145953,
      "version": 829,
      "versionNonce": 855694017,
      "isDeleted": false,
      "boundElementIds": null,
      "points": [
        [
          0,
          0
        ],
        [
          87.1031494140625,
          1.0921630859375
        ]
      ],
      "lastCommittedPoint": null,
      "startBinding": null,
      "endBinding": null,
      "startArrowhead": null,
      "endArrowhead": null
    },
    {
      "id": "_orNdjVLVpKnqy-VeYmih",
      "type": "line",
      "x": 577.9583435058594,
      "y": 487.80517578125,
      "width": 87.1031494140625,
      "height": 1.0921630859375,
      "angle": 0,
      "strokeColor": "#5f3dc4",
      "backgroundColor": "#000000",
      "fillStyle": "solid",
      "strokeWidth": 2,
      "strokeStyle": "solid",
      "roughness": 0,
      "opacity": 100,
      "groupIds": [],
      "strokeSharpness": "round",
      "seed": 2100002991,
      "version": 974,
      "versionNonce": 505408975,
      "isDeleted": false,
      "boundElementIds": null,
      "points": [
        [
          0,
          0
        ],
        [
          87.1031494140625,
          1.0921630859375
        ]
      ],
      "lastCommittedPoint": null,
      "startBinding": null,
      "endBinding": null,
      "startArrowhead": null,
      "endArrowhead": null
    },
    {
      "id": "WpKc_D98KP1KbAhPtDrim",
      "type": "ellipse",
      "x": 556.5043029785156,
      "y": 407.12684631347656,
      "width": 5.0699462890625,
      "height": 5.208404541015625,
      "angle": 0,
      "strokeColor": "#5f3dc4",
      "backgroundColor": "#000000",
      "fillStyle": "solid",
      "strokeWidth": 2,
      "strokeStyle": "solid",
      "roughness": 0,
      "opacity": 100,
      "groupIds": [],
      "strokeSharpness": "sharp",
      "seed": 486696257,
      "version": 902,
      "versionNonce": 1182390945,
      "isDeleted": false,
      "boundElementIds": null
    },
    {
      "id": "IrDEbnr-PZyHEc4IfBTPt",
      "type": "ellipse",
      "x": 556.6640625,
      "y": 434.73301696777344,
      "width": 5.0699462890625,
      "height": 5.208404541015625,
      "angle": 0,
      "strokeColor": "#5f3dc4",
      "backgroundColor": "#000000",
      "fillStyle": "solid",
      "strokeWidth": 2,
      "strokeStyle": "solid",
      "roughness": 0,
      "opacity": 100,
      "groupIds": [],
      "strokeSharpness": "sharp",
      "seed": 145158703,
      "version": 1079,
      "versionNonce": 1520393199,
      "isDeleted": false,
      "boundElementIds": null
    },
    {
      "id": "xUpF6T4XnUK5M8qu02NUq",
      "type": "ellipse",
      "x": 556.5195922851562,
      "y": 459.87257385253906,
      "width": 5.0699462890625,
      "height": 5.208404541015625,
      "angle": 0,
      "strokeColor": "#5f3dc4",
      "backgroundColor": "#000000",
      "fillStyle": "solid",
      "strokeWidth": 2,
      "strokeStyle": "solid",
      "roughness": 0,
      "opacity": 100,
      "groupIds": [],
      "strokeSharpness": "sharp",
      "seed": 1273315617,
      "version": 1131,
      "versionNonce": 646438529,
      "isDeleted": false,
      "boundElementIds": null
    },
    {
      "id": "yvXVdqPGd4dmJ3JH0tw8y",
      "type": "ellipse",
      "x": 556.6931762695312,
      "y": 486.32044982910156,
      "width": 5.0699462890625,
      "height": 5.208404541015625,
      "angle": 0,
      "strokeColor": "#5f3dc4",
      "backgroundColor": "#000000",
      "fillStyle": "solid",
      "strokeWidth": 2,
      "strokeStyle": "solid",
      "roughness": 0,
      "opacity": 100,
      "groupIds": [],
      "strokeSharpness": "sharp",
      "seed": 1623040353,
      "version": 1167,
      "versionNonce": 1296827919,
      "isDeleted": false,
      "boundElementIds": null
    },
    {
      "id": "3uK0K2enCn4E5IwoOw0_E",
      "type": "line",
      "x": 261.11724853515625,
      "y": 329.780029296875,
      "width": 787.1998901367188,
      "height": 0.22027587890625,
      "angle": 0,
      "strokeColor": "#2b8a3e",
      "backgroundColor": "#000000",
      "fillStyle": "solid",
      "strokeWidth": 2,
      "strokeStyle": "dotted",
      "roughness": 0,
      "opacity": 100,
      "groupIds": [],
      "strokeSharpness": "sharp",
      "seed": 1300016737,
      "version": 121,
      "versionNonce": 2098043585,
      "isDeleted": false,
      "boundElementIds": null,
      "points": [
        [
          0,
          0
        ],
        [
          787.1998901367188,
          -0.22027587890625
        ]
      ],
      "lastCommittedPoint": null,
      "startBinding": null,
      "endBinding": null,
      "startArrowhead": null,
      "endArrowhead": null
    },
    {
      "id": "c57ijPTuMKwcWwpEmA5Pi",
      "type": "text",
      "x": 302.09490966796875,
      "y": 373.8135070800781,
      "width": 98,
      "height": 25,
      "angle": 0,
      "strokeColor": "#2b8a3e",
      "backgroundColor": "#000000",
      "fillStyle": "solid",
      "strokeWidth": 2,
      "strokeStyle": "dotted",
      "roughness": 0,
      "opacity": 100,
      "groupIds": [],
      "strokeSharpness": "sharp",
      "seed": 820943521,
      "version": 16,
      "versionNonce": 1047664961,
      "isDeleted": false,
      "boundElementIds": null,
      "text": "Ancestors",
      "fontSize": 20,
      "fontFamily": 1,
      "textAlign": "left",
      "verticalAlign": "top",
      "baseline": 18
    },
    {
      "id": "kxqzdKXxgHJChlJ34FKnK",
      "type": "text",
      "x": 297.5,
      "y": 276.5,
      "width": 118,
      "height": 25,
      "angle": 0,
      "strokeColor": "#2b8a3e",
      "backgroundColor": "#000000",
      "fillStyle": "solid",
      "strokeWidth": 2,
      "strokeStyle": "dotted",
      "roughness": 0,
      "opacity": 100,
      "groupIds": [],
      "strokeSharpness": "sharp",
      "seed": 309921551,
      "version": 146,
      "versionNonce": 1432894561,
      "isDeleted": false,
      "boundElementIds": null,
      "text": "Desendants",
      "fontSize": 20,
      "fontFamily": 1,
      "textAlign": "left",
      "verticalAlign": "top",
      "baseline": 18
    },
    {
      "id": "deQ5IpEDI59OedZggbKGa",
      "type": "arrow",
      "x": 555.2573852539062,
      "y": 339.4930419921875,
      "width": 134.81462571158693,
      "height": 153.4805908203125,
      "angle": 0,
      "strokeColor": "#c92a2a",
      "backgroundColor": "#000000",
      "fillStyle": "solid",
      "strokeWidth": 2,
      "strokeStyle": "solid",
      "roughness": 0,
      "opacity": 100,
      "groupIds": [],
      "strokeSharpness": "sharp",
      "seed": 261118031,
      "version": 145,
      "versionNonce": 728843521,
      "isDeleted": false,
      "boundElementIds": null,
      "points": [
        [
          0,
          0
        ],
        [
          -134.81462571158693,
          -153.4805908203125
        ]
      ],
      "lastCommittedPoint": null,
      "startBinding": null,
      "endBinding": {
        "elementId": "BaylYjTs-ip4jAKgAmN0t",
        "focus": 0.23816215281894162,
        "gap": 13.23651123046875
      },
      "startArrowhead": null,
      "endArrowhead": "arrow"
    },
    {
      "id": "p5t2kFIrU82CYQcyIyKgs",
      "type": "arrow",
      "x": 608.500732421875,
      "y": 343.2196350097656,
      "width": 38.50303137331787,
      "height": 168.3857421875,
      "angle": 0,
      "strokeColor": "#c92a2a",
      "backgroundColor": "#000000",
      "fillStyle": "solid",
      "strokeWidth": 2,
      "strokeStyle": "solid",
      "roughness": 0,
      "opacity": 100,
      "groupIds": [],
      "strokeSharpness": "sharp",
      "seed": 897833807,
      "version": 203,
      "versionNonce": 1878748527,
      "isDeleted": false,
      "boundElementIds": null,
      "points": [
        [
          0,
          0
        ],
        [
          -38.50303137331787,
          -168.3857421875
        ]
      ],
      "lastCommittedPoint": null,
      "startBinding": null,
      "endBinding": {
        "elementId": "MgU3lwAKSQPrv-OoBuEpZ",
        "focus": 0.03859580926938548,
        "gap": 8.777252197265625
      },
      "startArrowhead": null,
      "endArrowhead": "arrow"
    },
    {
      "id": "eFctN1mEgVfVMEnw_nHph",
      "type": "arrow",
      "x": 666.3446946882577,
      "y": 345.09185791015625,
      "width": 59.97064863925402,
      "height": 169.4286346435547,
      "angle": 0,
      "strokeColor": "#c92a2a",
      "backgroundColor": "#000000",
      "fillStyle": "solid",
      "strokeWidth": 2,
      "strokeStyle": "solid",
      "roughness": 0,
      "opacity": 100,
      "groupIds": [],
      "strokeSharpness": "sharp",
      "seed": 978344463,
      "version": 483,
      "versionNonce": 1151157519,
      "isDeleted": false,
      "boundElementIds": null,
      "points": [
        [
          0,
          0
        ],
        [
          59.97064863925402,
          -169.4286346435547
        ]
      ],
      "lastCommittedPoint": null,
      "startBinding": {
        "elementId": "6DRgJ51w4phFwYi5_oCox",
        "focus": 0.5978641019052405,
        "gap": 14.40838623046875
      },
      "endBinding": {
        "elementId": "9oZsZ-eKs3dvUdr4JjgNj",
        "focus": -0.2941133456037484,
        "gap": 10.380508422851562
      },
      "startArrowhead": null,
      "endArrowhead": "arrow"
    },
    {
      "id": "BaylYjTs-ip4jAKgAmN0t",
      "type": "rectangle",
      "x": 325.5640869140625,
      "y": 81.05621337890625,
      "width": 137.9906005859375,
      "height": 91.7197265625,
      "angle": 0,
      "strokeColor": "#feaf2f",
      "backgroundColor": "transparent",
      "fillStyle": "solid",
      "strokeWidth": 2,
      "strokeStyle": "solid",
      "roughness": 0,
      "opacity": 100,
      "groupIds": [
        "ELgMyLHIKYzw94i9xCX6K"
      ],
      "strokeSharpness": "sharp",
      "seed": 1698685071,
      "version": 128,
      "versionNonce": 1810312545,
      "isDeleted": false,
      "boundElementIds": [
        "deQ5IpEDI59OedZggbKGa"
      ]
    },
    {
      "id": "dxG7w9wYdtPI8jKNVk0c6",
      "type": "text",
      "x": 342.05938720703125,
      "y": 89.41607666015625,
      "width": 105,
      "height": 75,
      "angle": 0,
      "strokeColor": "#feaf2f",
      "backgroundColor": "transparent",
      "fillStyle": "solid",
      "strokeWidth": 2,
      "strokeStyle": "solid",
      "roughness": 0,
      "opacity": 100,
      "groupIds": [
        "ELgMyLHIKYzw94i9xCX6K"
      ],
      "strokeSharpness": "sharp",
      "seed": 1367245857,
      "version": 103,
      "versionNonce": 192255279,
      "isDeleted": false,
      "boundElementIds": null,
      "text": "Automated\nWallet\nDApp",
      "fontSize": 20,
      "fontFamily": 1,
      "textAlign": "center",
      "verticalAlign": "middle",
      "baseline": 68
    },
    {
      "id": "MgU3lwAKSQPrv-OoBuEpZ",
      "type": "rectangle",
      "x": 491.5767517089844,
      "y": 74.3369140625,
      "width": 137.9906005859375,
      "height": 91.7197265625,
      "angle": 0,
      "strokeColor": "#feaf2f",
      "backgroundColor": "transparent",
      "fillStyle": "solid",
      "strokeWidth": 2,
      "strokeStyle": "solid",
      "roughness": 0,
      "opacity": 100,
      "groupIds": [
        "ay-4kmvk61AmCbSK9Lp6D"
      ],
      "strokeSharpness": "sharp",
      "seed": 627736193,
      "version": 153,
      "versionNonce": 1077729601,
      "isDeleted": false,
      "boundElementIds": [
        "deQ5IpEDI59OedZggbKGa",
        "p5t2kFIrU82CYQcyIyKgs"
      ]
    },
    {
      "id": "99qWXiLub5p-VGB-KaYyH",
      "type": "text",
      "x": 517.5720520019531,
      "y": 82.69677734375,
      "width": 86,
      "height": 75,
      "angle": 0,
      "strokeColor": "#feaf2f",
      "backgroundColor": "transparent",
      "fillStyle": "solid",
      "strokeWidth": 2,
      "strokeStyle": "solid",
      "roughness": 0,
      "opacity": 100,
      "groupIds": [
        "ay-4kmvk61AmCbSK9Lp6D"
      ],
      "strokeSharpness": "sharp",
      "seed": 459499023,
      "version": 166,
      "versionNonce": 294197071,
      "isDeleted": false,
      "boundElementIds": null,
      "text": "Social\nPortfolio\nSharing",
      "fontSize": 20,
      "fontFamily": 1,
      "textAlign": "center",
      "verticalAlign": "middle",
      "baseline": 68
    },
    {
      "id": "9oZsZ-eKs3dvUdr4JjgNj",
      "type": "rectangle",
      "x": 652.16015625,
      "y": 73.56298828125,
      "width": 137.9906005859375,
      "height": 91.7197265625,
      "angle": 0,
      "strokeColor": "#feaf2f",
      "backgroundColor": "transparent",
      "fillStyle": "solid",
      "strokeWidth": 2,
      "strokeStyle": "solid",
      "roughness": 0,
      "opacity": 100,
      "groupIds": [
        "VNUL1fQKmBo71r30Sl3tx"
      ],
      "strokeSharpness": "sharp",
      "seed": 910258831,
      "version": 242,
      "versionNonce": 2024933665,
      "isDeleted": false,
      "boundElementIds": [
        "deQ5IpEDI59OedZggbKGa",
        "p5t2kFIrU82CYQcyIyKgs",
        "eFctN1mEgVfVMEnw_nHph"
      ]
    },
    {
      "id": "vfBld81_U620GGr99BxmB",
      "type": "text",
      "x": 689.1554565429688,
      "y": 81.9228515625,
      "width": 64,
      "height": 75,
      "angle": 0,
      "strokeColor": "#feaf2f",
      "backgroundColor": "transparent",
      "fillStyle": "solid",
      "strokeWidth": 2,
      "strokeStyle": "solid",
      "roughness": 0,
      "opacity": 100,
      "groupIds": [
        "VNUL1fQKmBo71r30Sl3tx"
      ],
      "strokeSharpness": "sharp",
      "seed": 1588593121,
      "version": 261,
      "versionNonce": 707220847,
      "isDeleted": false,
      "boundElementIds": null,
      "text": "Virtual\nVoting\nDApp",
      "fontSize": 20,
      "fontFamily": 1,
      "textAlign": "center",
      "verticalAlign": "top",
      "baseline": 68
    },
    {
      "id": "bgQrbyChP0owV2Eouucle",
      "type": "ellipse",
      "x": 1022.7127075195312,
      "y": 124.01995849609375,
      "width": 13.9521484375,
      "height": 14.37506103515625,
      "angle": 0,
      "strokeColor": "#feaf2f",
      "backgroundColor": "#feaf2f",
      "fillStyle": "solid",
      "strokeWidth": 2,
      "strokeStyle": "solid",
      "roughness": 0,
      "opacity": 100,
      "groupIds": [
        "4Q79VLtC_Olrs8bEFYYdu"
      ],
      "strokeSharpness": "sharp",
      "seed": 981141761,
      "version": 328,
      "versionNonce": 1338353135,
      "isDeleted": false,
      "boundElementIds": null
    },
    {
      "id": "AIGCEa24qiikwbGAfywwO",
      "type": "ellipse",
      "x": 966.02392578125,
      "y": 123.81246948242188,
      "width": 13.9521484375,
      "height": 14.37506103515625,
      "angle": 0,
      "strokeColor": "#feaf2f",
      "backgroundColor": "#feaf2f",
      "fillStyle": "solid",
      "strokeWidth": 2,
      "strokeStyle": "solid",
      "roughness": 0,
      "opacity": 100,
      "groupIds": [
        "4Q79VLtC_Olrs8bEFYYdu"
      ],
      "strokeSharpness": "sharp",
      "seed": 1328453199,
      "version": 277,
      "versionNonce": 893596801,
      "isDeleted": false,
      "boundElementIds": null
    },
    {
      "id": "v2O_EVfGMQPx6OlnPjlVP",
      "type": "ellipse",
      "x": 993.02392578125,
      "y": 123.81246948242188,
      "width": 13.9521484375,
      "height": 14.37506103515625,
      "angle": 0,
      "strokeColor": "#feaf2f",
      "backgroundColor": "#feaf2f",
      "fillStyle": "solid",
      "strokeWidth": 2,
      "strokeStyle": "solid",
      "roughness": 0,
      "opacity": 100,
      "groupIds": [
        "4Q79VLtC_Olrs8bEFYYdu"
      ],
      "strokeSharpness": "sharp",
      "seed": 1317435599,
      "version": 343,
      "versionNonce": 454627343,
      "isDeleted": false,
      "boundElementIds": null
    },
    {
      "id": "pIIcz8XFHTQZlZDlfz0p7",
      "type": "arrow",
      "x": 743.211036416491,
      "y": 340.7350158691406,
      "width": 123.03460324861885,
      "height": 163.42863464355472,
      "angle": 0,
      "strokeColor": "#c92a2a",
      "backgroundColor": "#000000",
      "fillStyle": "solid",
      "strokeWidth": 2,
      "strokeStyle": "solid",
      "roughness": 0,
      "opacity": 100,
      "groupIds": [],
      "strokeSharpness": "sharp",
      "seed": 116431823,
      "version": 641,
      "versionNonce": 647167585,
      "isDeleted": false,
      "boundElementIds": null,
      "points": [
        [
          0,
          0
        ],
        [
          123.03460324861885,
          -163.42863464355472
        ]
      ],
      "lastCommittedPoint": null,
      "startBinding": null,
      "endBinding": {
        "elementId": "sAi6m3o2Vg0Hwp80GU_wi",
        "focus": -0.29411334560374763,
        "gap": 10.380508422851534
      },
      "startArrowhead": null,
      "endArrowhead": "arrow"
    },
    {
      "id": "sAi6m3o2Vg0Hwp80GU_wi",
      "type": "rectangle",
      "x": 809.1433337006965,
      "y": 75.20614624023438,
      "width": 137.9906005859375,
      "height": 91.7197265625,
      "angle": 0,
      "strokeColor": "#feaf2f",
      "backgroundColor": "transparent",
      "fillStyle": "solid",
      "strokeWidth": 2,
      "strokeStyle": "solid",
      "roughness": 0,
      "opacity": 100,
      "groupIds": [
        "jNNC0h81-vqRcbvZGmP4V"
      ],
      "strokeSharpness": "sharp",
      "seed": 315821217,
      "version": 374,
      "versionNonce": 1930823087,
      "isDeleted": false,
      "boundElementIds": [
        "deQ5IpEDI59OedZggbKGa",
        "p5t2kFIrU82CYQcyIyKgs",
        "pIIcz8XFHTQZlZDlfz0p7",
        "AORZcKsMeG057c_w7TDPP"
      ]
    },
    {
      "id": "dY4eHaOd96GKp7RWQXazO",
      "type": "text",
      "x": 830.1386339936653,
      "y": 83.56600952148438,
      "width": 96,
      "height": 75,
      "angle": 0,
      "strokeColor": "#feaf2f",
      "backgroundColor": "transparent",
      "fillStyle": "solid",
      "strokeWidth": 2,
      "strokeStyle": "solid",
      "roughness": 0,
      "opacity": 100,
      "groupIds": [
        "jNNC0h81-vqRcbvZGmP4V"
      ],
      "strokeSharpness": "sharp",
      "seed": 19548655,
      "version": 415,
      "versionNonce": 1970909377,
      "isDeleted": false,
      "boundElementIds": [
        "AORZcKsMeG057c_w7TDPP"
      ],
      "text": "DeFi\nPool/DeX\nDApp",
      "fontSize": 20,
      "fontFamily": 1,
      "textAlign": "center",
      "verticalAlign": "top",
      "baseline": 68
    },
    {
      "id": "AORZcKsMeG057c_w7TDPP",
      "type": "arrow",
      "x": 883.1010568394822,
      "y": 68.9154586791992,
      "width": 0.18001591652500792,
      "height": 70.27667345319475,
      "angle": 0,
      "strokeColor": "#364fc7",
      "backgroundColor": "#000000",
      "fillStyle": "solid",
      "strokeWidth": 2,
      "strokeStyle": "solid",
      "roughness": 0,
      "opacity": 100,
      "groupIds": [],
      "strokeSharpness": "sharp",
      "seed": 1964161217,
      "version": 1353,
      "versionNonce": 1926338209,
      "isDeleted": false,
      "boundElementIds": null,
      "points": [
        [
          0,
          0
        ],
        [
          0.18001591652500792,
          -70.27667345319475
        ]
      ],
      "lastCommittedPoint": null,
      "startBinding": {
        "elementId": "dY4eHaOd96GKp7RWQXazO",
        "focus": 0.100399862733102,
        "gap": 14.65055084228517
      },
      "endBinding": {
        "elementId": "-nylS7kY8nbEmHgco75du",
        "focus": -0.0203623375677675,
        "gap": 14.604455828555357
      },
      "startArrowhead": null,
      "endArrowhead": "arrow"
    },
    {
      "id": "iVI6hF9uRgq4mOPa3oEIk",
      "type": "rectangle",
      "x": 810.4893698665837,
      "y": -126.01342773437501,
      "width": 146.24745657808728,
      "height": 118.0576348075431,
      "angle": 0,
      "strokeColor": "#364fc7",
      "backgroundColor": "transparent",
      "fillStyle": "solid",
      "strokeWidth": 2,
      "strokeStyle": "solid",
      "roughness": 0,
      "opacity": 100,
      "groupIds": [],
      "strokeSharpness": "sharp",
      "seed": 410129025,
      "version": 704,
      "versionNonce": 161375951,
      "isDeleted": false,
      "boundElementIds": [
        "deQ5IpEDI59OedZggbKGa",
        "p5t2kFIrU82CYQcyIyKgs",
        "pIIcz8XFHTQZlZDlfz0p7",
        "AORZcKsMeG057c_w7TDPP"
      ]
    },
    {
      "id": "RKTLOMK5dhvqZHSCkFkJe",
      "type": "text",
      "x": 831.4542527913943,
      "y": -122.0001000234895,
      "width": 105.13766894425967,
      "height": 75.09833496018543,
      "angle": 0,
      "strokeColor": "#364fc7",
      "backgroundColor": "transparent",
      "fillStyle": "solid",
      "strokeWidth": 2,
      "strokeStyle": "solid",
      "roughness": 0,
      "opacity": 100,
      "groupIds": [],
      "strokeSharpness": "sharp",
      "seed": 1833898511,
      "version": 835,
      "versionNonce": 745651087,
      "isDeleted": false,
      "boundElementIds": [],
      "text": "DeFI\nWallet\nRebalencer",
      "fontSize": 20.026222656049466,
      "fontFamily": 1,
      "textAlign": "center",
      "verticalAlign": "top",
      "baseline": 68.09833496018543
    },
    {
      "id": "2zRKWUtNxIIybzbn7aPDn",
      "type": "text",
      "x": 414.3017346191406,
      "y": -110.6171875,
      "width": 319.2229138183595,
      "height": 92.79735866812774,
      "angle": 0,
      "strokeColor": "#1864ab",
      "backgroundColor": "#ffdf2f",
      "fillStyle": "solid",
      "strokeWidth": 2,
      "strokeStyle": "solid",
      "roughness": 0,
      "opacity": 100,
      "groupIds": [],
      "strokeSharpness": "sharp",
      "seed": 719633231,
      "version": 146,
      "versionNonce": 943362703,
      "isDeleted": false,
      "boundElementIds": null,
      "text": "Composable DApp\nExamples",
      "fontSize": 37.11894346725113,
      "fontFamily": 1,
      "textAlign": "center",
      "verticalAlign": "top",
      "baseline": 78.79735866812774
    },
    {
      "id": "-nylS7kY8nbEmHgco75du",
      "type": "text",
      "x": 828.4914716310973,
      "y": -44.07937190172525,
      "width": 107.53490746934192,
      "height": 28.113701299174355,
      "angle": 0,
      "strokeColor": "#364fc7",
      "backgroundColor": "transparent",
      "fillStyle": "solid",
      "strokeWidth": 2,
      "strokeStyle": "solid",
      "roughness": 0,
      "opacity": 100,
      "groupIds": [],
      "strokeSharpness": "sharp",
      "seed": 472510959,
      "version": 987,
      "versionNonce": 229728239,
      "isDeleted": false,
      "boundElementIds": [
        "AORZcKsMeG057c_w7TDPP"
      ],
      "text": "Automated Crypto\nAllocation Strategy",
      "fontSize": 11.232079969152796,
      "fontFamily": 1,
      "textAlign": "center",
      "verticalAlign": "top",
      "baseline": 24.113701299174355
    }
  ],
  "appState": {
    "gridSize": null,
    "viewBackgroundColor": "#ffffff"
  }
}